…
# add names and rearrange
names(dat)[3:4] <- c('tech', 'perf')
dat <- dat[c(3:4, 1:2)]

# print
print(dat, n = 5)
```

    ## # A tibble: 49 x 4
    ##    tech  perf  pair judge
    ##   <dbl> <dbl> <int> <dbl>
    ## 1   5.6   5.6     1     1
    ## 2   5.5   5.5     2     1
    ## 3   6     6       3     1
    ## 4   5.6   5.6     4     1
    ## 5   5.4   4.8     5     1
    ## # ... with 44 more rows
…
